{
  "users": [
    {
      "id": 1,
      "name": "Prawito Hudoro",
      "email": "prawito@email.com",
      "bidang": "mentor RN"
    },
    {
      "name": "Fernanda Mahesa",
      "email": "fernandamahesa@gmail.com",
      "bidang": "Front End Dev",
      "id": 2
    },
    {
      "name": "Karinia Sumitha",
      "email": "kariniasumitha@gmail.com",
      "bidang": "CSO",
      "id": 3
    },
    {
      "name": "Sandika Galih",
      "email": "sandhika@gmail.com",
      "bidang": "Mentor JS",
      "id": 4
    }
  ]
}